<?xml version="1.0" encoding="utf-8"?>
<!-- Generator: Adobe Illustrator 15.1.0, SVG Export Plug-In . SVG Version: 6.00 Build 0)  -->
<!DOCTYPE svg PUBLIC "-//W3C//DTD SVG 1.1//EN" "http://www.w3.org/Graphics/SVG/1.1/DTD/svg11.dtd">
<svg version="1.1" id="Layer_1" xmlns="http://www.w3.org/2000/svg" xmlns:xlink="http://www.w3.org/1999/xlink" x="0px" y="0px"
	 width="20" height="20" viewBox="-455 -552.5 1710 1705" enable-background="new -455 -552.5 1710 1705"
	 xml:space="preserve">
<path fill="#fff" d="M-70-372.5c0,102.5-77.5,180-187.5,180C-377.5-185-455-270-455-372.5c0-95,77.5-180,187.5-180S-70-465-70-372.5L-70-372.5z
	 M-447.5,1142.5v-1190h360v1190H-447.5z"/>
<path fill="#fff" d="M142.5,337.5c0-145,0-275-7.5-385h317.5l15,172.5H485C537.5,47.5,655-62.5,845-62.5C1092.5-65,1255,100,1255,450v702.5
	H897.5v-660c0-145-52.5-257.5-180-257.5c-95,0-162.5,77.5-187.5,137.5c-17.5,17.5-17.5,52.5-17.5,95v685h-370V337.5z"/>
</svg>
