<?xml version="1.0" encoding="utf-8"?>
<!-- Generator: Adobe Illustrator 15.1.0, SVG Export Plug-In . SVG Version: 6.00 Build 0)  -->
<!DOCTYPE svg PUBLIC "-//W3C//DTD SVG 1.1//EN" "http://www.w3.org/Graphics/SVG/1.1/DTD/svg11.dtd">
<svg version="1.1" id="Layer_1" xmlns="http://www.w3.org/2000/svg" xmlns:xlink="http://www.w3.org/1999/xlink" x="0px" y="0px"
	 width="10px" height="5px" viewBox="7.5 9.5 10 5" enable-background="new 7.5 9.5 10 5" xml:space="preserve">
<path fill="#293681" d="M7.5,9.5l5,5l5-5H7.5z"/>
<path fill="none" d="M0,24V0h24v24H0z"/>
</svg>
