<?xml version="1.0" encoding="utf-8"?>
<!-- Generator: Adobe Illustrator 15.1.0, SVG Export Plug-In . SVG Version: 6.00 Build 0)  -->
<!DOCTYPE svg PUBLIC "-//W3C//DTD SVG 1.1//EN" "http://www.w3.org/Graphics/SVG/1.1/DTD/svg11.dtd">
<svg version="1.1" id="Layer_1" xmlns="http://www.w3.org/2000/svg" xmlns:xlink="http://www.w3.org/1999/xlink" x="0px" y="0px"
	 width="15" height="29" viewBox="10 7 5 10" enable-background="new 10 7 5 10" xml:space="preserve">
<path fill="#C62600" d="M10,17l5-5l-5-5V17z"/>
<path fill="none" d="M0,24V0h24v24H0z"/>
</svg>
